-------------------------------------------------------------------------------
Test set: MockitoPartIntegrationTest
-------------------------------------------------------------------------------
Tests run: 2, Failures: 0, Errors: 0, Skipped: 0, Time elapsed: 0.001 s - in MockitoPartIntegrationTest
