-------------------------------------------------------------------------------
Test set: MockitoRepositoryIntegrationTest
-------------------------------------------------------------------------------
Tests run: 2, Failures: 0, Errors: 0, Skipped: 0, Time elapsed: 1.157 s - in MockitoRepositoryIntegrationTest
