C:\Users\aditr\IdeaProjects\InventoryAvocado\inventoryavocado\src\main\java\inventory\repository\InventoryRepository.java
C:\Users\aditr\IdeaProjects\InventoryAvocado\inventoryavocado\src\main\java\inventory\controller\Controller.java
C:\Users\aditr\IdeaProjects\InventoryAvocado\inventoryavocado\src\main\java\inventory\controller\ModifyPartController.java
C:\Users\aditr\IdeaProjects\InventoryAvocado\inventoryavocado\src\main\java\inventory\service\InventoryService.java
C:\Users\aditr\IdeaProjects\InventoryAvocado\inventoryavocado\src\main\java\inventory\controller\AddPartController.java
C:\Users\aditr\IdeaProjects\InventoryAvocado\inventoryavocado\src\main\java\inventory\model\Part.java
C:\Users\aditr\IdeaProjects\InventoryAvocado\inventoryavocado\src\main\java\inventory\model\InhousePart.java
C:\Users\aditr\IdeaProjects\InventoryAvocado\inventoryavocado\src\main\java\inventory\controller\ModifyProductController.java
C:\Users\aditr\IdeaProjects\InventoryAvocado\inventoryavocado\src\main\java\inventory\Main.java
C:\Users\aditr\IdeaProjects\InventoryAvocado\inventoryavocado\src\main\java\inventory\model\OutsourcedPart.java
C:\Users\aditr\IdeaProjects\InventoryAvocado\inventoryavocado\src\main\java\inventory\model\Product.java
C:\Users\aditr\IdeaProjects\InventoryAvocado\inventoryavocado\src\main\java\inventory\controller\AddProductController.java
C:\Users\aditr\IdeaProjects\InventoryAvocado\inventoryavocado\src\main\java\inventory\controller\MainScreenController.java
C:\Users\aditr\IdeaProjects\InventoryAvocado\inventoryavocado\src\main\java\inventory\model\Inventory.java
